[9.08.2013 | 11:35:30] Unknown column 'car_id' in 'field list'
[9.08.2013 | 11:35:30] 
[9.08.2013 | 11:35:30] INSERT INTO `Cars` (`car_id`,`fuel`, `x`, `y` ,`z`) VALUES ('1','300','-2003.320800','314.720794','34.989578')
[9.08.2013 | 11:35:44] Unknown column 'car_id' in 'field list'
[9.08.2013 | 11:35:44] 
[9.08.2013 | 11:35:44] INSERT INTO `Cars` (`car_id`,`fuel`, `x`, `y` ,`z`) VALUES ('2','300','-2006.830078','346.397338','35.008541')
